<?xml version="1.0" encoding="utf-8"?>
<!-- Generator: Adobe Illustrator 22.0.1, SVG Export Plug-In . SVG Version: 6.00 Build 0)  -->
<svg version="1.1" id="Capa_1" xmlns="http://www.w3.org/2000/svg" xmlns:xlink="http://www.w3.org/1999/xlink" x="0px" y="0px"
	 viewBox="0 0 33.7 33.6" style="enable-background:new 0 0 33.7 33.6;" xml:space="preserve">
<style type="text/css">
	.st0{fill:#FFFFFF;}
	.st1{fill:none;stroke:#008F45;stroke-width:4.3;stroke-miterlimit:10;}
</style>
<title>Culminados</title>
<circle class="st0" cx="16.8" cy="16.8" r="16.8"/>
<polyline class="st1" points="6.1,13.9 15.2,23.3 32.2,6.8 "/>
</svg>
