<svg xmlns="http://www.w3.org/2000/svg" width="8.35" height="11.19" viewBox="0 0 8.35 11.19">
  <defs>
    <style>
      .cls-1 {
        fill: #005aa3;
      }
    </style>
  </defs>
  <title>Origen</title>
  <g id="Capa_2" data-name="Capa 2">
    <g id="Capa_1-2" data-name="Capa 1">
      <g>
        <path class="cls-1" d="M4.17,3.24a.95.95,0,1,0,.94,1A.94.94,0,0,0,4.17,3.24Z"/>
        <path class="cls-1" d="M4.2,0h0A4.18,4.18,0,0,0,0,4.18,5.34,5.34,0,0,0,1.32,7.35L3.25,10l.94,1.21L7,7.35A5.29,5.29,0,0,0,8.35,4.18,4.18,4.18,0,0,0,4.2,0Zm0,6.33A2.15,2.15,0,1,1,6.32,4.18,2.14,2.14,0,0,1,4.17,6.33Z"/>
      </g>
    </g>
  </g>
</svg>
